Lab 5 Individual work
…
## # A tibble: 7 x 2
##   DAY_WEEK number
##      <int>  <int>
## 1        1   7758
## 2        2   6821
## 3        3   6744
## 4        4   6778
## 5        5   7212
## 6        6   8354
## 7        7   8607

Tally_HourOfDay <- Joined_Data_ACCIDENTdrivers %>% group_by(HOUR) %>% filter(HOUR <= 24) %>% summarize(number = n())
Tally_HourOfDay

## # A tibble: 24 x 2
##     HOUR number
##    <int>  <int>
##  1     0   1734
##  2     1   1505
##  3     2   1630
##  4     3   1223
##  5     4   1076
##  6     5   1532
##  7     6   1958
##  8     7   1894
##  9     8   1527
## 10     9   1561
## #  with 14 more rows
…
