team.Rmd
…
## # A tibble: 7 x 2
##   DAY_WEEK number
##      <int>  <int>
## 1        1   7773
## 2        2   6837
## 3        3   6755
## 4        4   6791
## 5        5   7220
## 6        6   8370
## 7        7   8618

Tally_HourOfDay <- Joined_Data_ACCIDENTdrivers %>% group_by(HOUR) %>% filter(HOUR <= 24) %>% summarize(number = n())
Tally_HourOfDay

## # A tibble: 24 x 2
##     HOUR number
##    <int>  <int>
##  1     0   1739
##  2     1   1509
##  3     2   1635
##  4     3   1228
##  5     4   1078
##  6     5   1537
##  7     6   1959
##  8     7   1896
##  9     8   1528
## 10     9   1564
## #  with 14 more rows
…
